1 10 20
100 200 125
201 210 89
900 1000 174
3 3 8
700 3372 217
876000 999999 507
96 93 106
400 700 145
350 360 126
345 372 126
1000 1030 156
600 700 145
25000 25700 264
100000 100100 310
2 33 112
750 700 171
180 360 144
27800 32100 285
140 150 117
780 850 135
1300 1650 177
85010 85060 240
350 360 126
10 20 21
90000 90010 165
625 675 145
999997 999999 259
830 845 135
950 955 37
30000 30020 179
65300 65340 224
95700 95790 284
680000 680200 336
15 35 112
150 350 144
600 670 145
950 10000 262
4800 4820 166
7430 7450 133
100000 100001 129
690 720 171
5000 5050 179
840 900 179
7800 7890 177
60080 70000 335
4300 4325 171
4325 4300 171
900 970 174
1000 1025 156
9 10 20
99 100 26
999 1000 112
9999 10000 92
99999 100000 227
999999 999999 259
550 560 137
5700 5710 130
5800 5810 174
5900 5910 143
123 134 122
234 245 128
345 356 126
456 467 129
567 578 106
678 689 127
789 800 122
1234 1245 133
2345 2356 152
3456 3467 150
4567 4578 153
5678 5689 174
6789 6800 120
111111 111112 116
222222 222223 117
333333 333334 154
444444 444445 118
555555 555556 178
666666 666667 155
777777 777778 155
888888 888889 119
999999 999999 259
123 456 144
234 567 144
345 678 145
456 789 171
567 890 179
678 900 179
789 900 179
890 1000 174
787 4 171
15 2000 182
75847 82115 351
1999 2724 209
415 2415 183
2 99998 351
47 71000 340
3 33334 308
98000 98117 222
410 933 179
89651 59301 351
98562 62357 351
695 3687 217
625978 523698 452
369 963 179
5820 5820 143
