526038 30024 470
600827 841410 525
249491 702827 509
894951 986393 507
473275 260402 449
462947 638807 509
252455 999840 525
197876 530307 470
860401 677386 525
62313 632896 509
885439 664576 525
321156 438274 449
920097 722521 525
543760 601669 452
375476 779212 509
28524 858867 525
414787 584242 470
26789 598703 470
869024 528209 525
724563 920020 525
3828 748532 509
534409 553771 452
434381 187521 449
287916 104543 443
885618 901614 445
711133 239555 509
544837 260080 470
972922 689822 525
277873 397776 441
797168 423956 509
867309 243315 525
25475 141688 354
60195 422565 449
120628 65387 354
753671 297747 509
339468 589404 470
745270 84827 509
53938 621820 470
306353 598252 470
598495 799823 509
640525 628557 416
366976 641611 509
864748 250616 525
164383 861628 525
439841 610737 470
580602 206176 470
808296 988799 525
487119 331347 449
910842 588193 525
105211 603282 470
365217 109713 443
596420 191541 470
393900 6966 443
350933 267558 441
520965 618001 452
68287 449651 449
911200 978419 507
279007 321569 389
278521 252481 407
53486 844522 525
205866 750830 509
290785 440602 449
227619 793924 509
885514 822558 525
679854 68236 509
139321 763453 509
215447 271326 443
987940 279531 525
65436 279560 443
637618 359138 509
851058 496111 525
215864 989300 525
136946 238935 443
144804 764448 509
391798 218776 443
676630 255282 509
206102 97855 383
615532 723829 509
819313 82568 509
616944 533019 452
930106 379010 525
654880 690441 442
146151 38553 375
120227 712893 509
219012 14275 386
816485 151310 509
704879 613261 509
245004 774080 509
345974 453566 449
297126 713088 509
668304 879910 525
872140 473792 525
532754 922924 525
923658 863943 476
466687 185570 449
63486 736951 509
524001 321892 470
259039 100436 443
845264 102579 525
725936 916311 525
85433 510344 449
126340 714771 509
657868 764443 504
406714 421310 449
449808 78573 449
177462 887835 525
177561 873778 525
7740 960066 525
245637 430488 449
36205 65256 340
529973 730791 509
552810 784479 509
522981 631771 509
242901 519909 470
481213 826182 509
592439 644795 509
705216 9934 509
810455 451502 509
293827 464219 449
311512 755733 509
9662 436695 449
389529 464810 449
417294 418559 343
973992 196066 525
689836 740524 504
118029 541323 470
525129 102487 470
159011 41646 383
265679 165426 443
720699 15567 509
574681 82213 470
96647 807272 509
506060 480948 426
294816 829591 509
422430 31711 449
936665 171096 525
125167 972209 525
679595 863074 525
461056 694802 509
142605 210849 383
751082 204928 509
777926 492336 509
937138 11465 525
588911 924404 525
482435 576980 470
11416 151328 375
916546 946099 507
158884 187657 370
296267 317291 384
30640 359876 443
693445 430325 509
648402 593842 509
191957 435194 449
325513 76759 443
672278 290327 509
700803 374681 509
395684 606656 470
753144 466523 509
14789 876175 525
394637 528786 470
610011 740286 509
771709 437815 509
152310 52804 375
998049 616395 525
827837 801308 450
197862 120634 383
527870 993074 525
432707 483084 444
801010 89961 509
8661 206694 383
78277 143597 375
953748 572355 525
964300 621359 525
198175 637490 509
895494 328437 525
15883 123319 354
969222 365430 525
634459 400925 509
834693 688772 504
958787 666554 525
731962 600517 509
294844 403410 441
80837 202690 383
31008 551960 470
335811 468454 449
808160 946972 525
260163 769819 509
879222 129378 525
67305 46972 340
413907 408942 449
249302 249302 112
902871 902871 65
229261 229261 107
878286 878286 176
192253 192253 99
318081 318081 123
151028 151028 109
695998 695998 168
631520 631520 80
835766 835766 189
