1 10 20
100 200 125
201 210 89
900 1000 174
1 1001 179
1001 2001 182
2001 3001 217
3001 4001 238
4001 5001 215
5001 6001 236
6001 7001 262
7001 8001 252
8001 9001 247
9001 10001 260
10001 29001 308
11001 12001 250
12001 13001 263
13001 14001 276
18001 19001 261
23001 24001 282
28001 29001 259
33001 34001 267
38500 39001 244
43001 44001 270
48001 49001 296
63001 54500 335
58001 59001 273
63001 64001 330
68001 69001 312
73001 74001 294
78001 99001 338
83001 84001 289
88001 89001 333
93001 94001 284
98001 99001 284
103001 104001 248
108001 109001 279
113001 114001 292
118001 119001 336
123001 124001 331
128001 129001 331
133001 134001 313
138001 139001 313
143001 144001 282
148001 149001 326
153001 154001 308
158001 159001 321
163001 164001 321
168001 169001 321
173001 174001 347
178001 179001 347
183001 184001 254
188001 189001 316
193001 194001 329
198001 199001 329
203001 204001 311
208001 209001 311
213001 214001 373
218001 219001 324
223001 224001 324
228001 229001 355
233001 234001 368
238001 239001 306
243001 244001 337
248001 249001 288
253001 254001 332
258001 259001 301
263001 264001 407
268001 269001 270
273001 274001 358
278001 279001 345
283001 284001 358
288001 289001 389
293001 294001 358
298001 299001 371
303001 304001 340
308001 309001 371
313001 314001 340
318001 319001 353
323001 324001 322
328001 329001 291
333001 334001 335
338001 339001 335
343001 344001 335
348001 349001 335
353001 354001 304
358001 359001 379
363001 364001 317
368001 369001 317
373001 374001 348
378001 379001 330
383001 384001 330
388001 389001 330
393001 394001 361
398001 399001 374
403001 404001 343
408001 409001 312
413001 414001 374
418001 419001 343
423001 424001 418
428001 429001 294
433001 434001 343
438001 439001 400
443001 444001 338
448001 449001 369
453001 454001 369
458001 459001 307
463001 464001 325
468001 469001 382
473001 474001 307
478001 479001 351
483001 484001 307
488001 489001 382
493001 494001 395
498001 499001 351
503001 504001 320
508001 509001 377
513001 514001 351
518001 519001 439
523001 524001 302
528001 529001 377
533001 534001 377
538001 539001 346
543001 544001 359
548001 549001 333
553001 554001 346
558001 559001 315
563001 564001 328
568001 569001 359
573001 574001 359
578001 579001 346
583001 584001 434
588001 589001 315
593001 594001 328
983001 984001 383
988001 989001 321
993001 994001 290
998001 999001 396
10000 1000 262
400 400 28
