1 10 20
100 200 125
201 210 89
900 1000 174
20 5000 238
31903 148856 375
173387 200190 365
88721 171006 383
300687 170684 443
149546 238873 443
2548 132457 354
68735 280589 443
296833 223947 443
188243 283030 443
25684 139831 354
268845 187207 443
136148 121583 344
289967 279597 389
121570 281177 443
98380 43816 351
89861 3804 351
61593 227203 386
39012 252493 443
197965 73812 383
185244 74390 383
32967 81249 351
118719 115439 349
140406 189008 383
285653 139028 443
246453 172506 443
239747 301624 407
183828 266530 443
124350 239028 443
247676 287879 407
228563 201776 386
299885 94593 443
72166 104195 351
2359 28100 308
243023 246066 337
4181 155258 375
307911 297180 371
142205 215408 383
283846 36339 443
301793 112763 443
89883 255568 443
303311 102015 443
198720 12385 383
12069 33248 308
291499 3080 443
79789 186383 383
9278 254646 443
74713 231922 443
44847 29171 324
150677 263626 443
11758 67752 340
627406 346799 509
661189 505141 509
410148 513404 470
337824 656322 509
340633 437852 449
525009 526140 408
562015 448614 470
457198 462433 444
411351 496776 444
445431 473188 444
646699 463973 509
344843 617891 470
552524 502179 470
414114 592679 470
629197 353722 509
446634 477544 444
601020 642269 509
538456 385576 470
538319 630687 509
543112 333928 470
482978 618889 470
508953 619652 470
435959 542276 470
516687 474663 470
606258 600889 403
550558 576618 421
592363 594103 328
657374 661203 398
494133 585996 470
486414 563054 470
521275 645005 509
354184 439340 449
337358 383620 441
413207 455832 418
426300 609970 470
544081 539077 408
334466 579997 470
383025 600892 470
616025 414186 470
543599 406557 470
481112 502827 426
547662 449750 470
426043 643170 509
386511 389661 436
535517 346218 470
379016 439215 449
648749 387309 509
642763 495896 509
396126 646865 509
655769 658373 429
978722 724563 525
739765 994077 525
726823 957195 525
696716 939459 525
667264 762815 504
903343 902087 383
701396 677975 442
927484 925313 476
960360 766273 525
914243 865705 476
986439 992477 396
698911 725031 504
747519 884212 525
756750 839227 525
849214 805604 525
779744 814915 468
754628 821229 468
887395 875034 445
953335 770042 525
952907 826366 525
848853 745474 525
802682 972402 525
876073 935994 476
862445 690358 525
805982 792219 468
860202 836048 525
684740 804883 504
860330 783045 525
864177 815111 525
776924 923099 525
839691 804865 525
681398 741211 504
715112 972087 525
992932 816351 525
694477 873276 525
797699 963869 525
996816 774045 525
912785 682471 525
765377 988929 525
816768 869550 525
705420 870200 525
840510 741211 525
805069 984684 525
925469 979174 507
828041 721172 468
872565 769462 525
961730 775835 525
752291 925960 525
999354 887761 507
753446 894949 525
