.................
----------------------------------------------------------------------
Ran 17 tests in 140.445s

OK
20
125
89
174
20
1
525
Name               Stmts   Miss Branch BrPart  Cover   Missing
--------------------------------------------------------------
SphereCollatz.py      30      1     14      0    98%   112
TestCollatz.py        81      0      0      0   100%
--------------------------------------------------------------
TOTAL                111      1     14      0    99%
